%YAML 1.1
%TAG !u! tag:unity3d.com,2011:
--- !u!1001 &6099407826677349919
PrefabInstance:
  m_ObjectHideFlags: 0
  serializedVersion: 2
  m_Modification:
    m_TransformParent: {fileID: 0}
    m_Modifications:
    - target: {fileID: 1014582455345177624, guid: db1484d273d944e50a28758beda15bb9,
        type: 3}
      propertyPath: m_text
      value: <<
      objectReference: {fileID: 0}
    - target: {fileID: 1014582455345177624, guid: db1484d273d944e50a28758beda15bb9,
        type: 3}
      propertyPath: m_textInfo.characterCount
      value: 2
      objectReference: {fileID: 0}
    - target: {fileID: 1014582455345177624, guid: db1484d273d944e50a28758beda15bb9,
        type: 3}
      propertyPath: m_textInfo.lineCount
      value: 1
      objectReference: {fileID: 0}
    - target: {fileID: 1014582455345177624, guid: db1484d273d944e50a28758beda15bb9,
        type: 3}
      propertyPath: m_fontSize
      value: 5
      objectReference: {fileID: 0}
    - target: {fileID: 1014582455345177624, guid: db1484d273d944e50a28758beda15bb9,
        type: 3}
      propertyPath: m_fontSizeBase
      value: 5
      objectReference: {fileID: 0}
    - target: {fileID: 1014582455345177624, guid: db1484d273d944e50a28758beda15bb9,
        type: 3}
      propertyPath: m_firstOverflowCharacterIndex
      value: -1
      objectReference: {fileID: 0}
    - target: {fileID: 1014582455345177624, guid: db1484d273d944e50a28758beda15bb9,
        type: 3}
      propertyPath: m_fontColor.r
      value: 0.27450982
      objectReference: {fileID: 0}
    - target: {fileID: 1014582455345177624, guid: db1484d273d944e50a28758beda15bb9,
        type: 3}
      propertyPath: m_fontColor.g
      value: 0
      objectReference: {fileID: 0}
    - target: {fileID: 1014582455345177624, guid: db1484d273d944e50a28758beda15bb9,
        type: 3}
      propertyPath: m_fontColor.b
      value: 0.0027168873
      objectReference: {fileID: 0}
    - target: {fileID: 1014582455345177624, guid: db1484d273d944e50a28758beda15bb9,
        type: 3}
      propertyPath: m_fontColor32.rgba
      value: 4278190150
      objectReference: {fileID: 0}
    - target: {fileID: 1940764625243457140, guid: db1484d273d944e50a28758beda15bb9,
        type: 3}
      propertyPath: type
      value: 1
      objectReference: {fileID: 0}
    - target: {fileID: 2217144546837555613, guid: db1484d273d944e50a28758beda15bb9,
        type: 3}
      propertyPath: m_Name
      value: Slower
      objectReference: {fileID: 0}
    - target: {fileID: 6214033930178652357, guid: db1484d273d944e50a28758beda15bb9,
        type: 3}
      propertyPath: m_Materials.Array.data[0]
      value: 
      objectReference: {fileID: 2100000, guid: 89130bad166dc430eae9c67c5ad13f42, type: 2}
    - target: {fileID: 6898399042697121217, guid: db1484d273d944e50a28758beda15bb9,
        type: 3}
      propertyPath: m_Mesh
      value: 
      objectReference: {fileID: 0}
    - target: {fileID: 7154558999357736694, guid: db1484d273d944e50a28758beda15bb9,
        type: 3}
      propertyPath: m_LocalPosition.x
      value: 0
      objectReference: {fileID: 0}
    - target: {fileID: 7154558999357736694, guid: db1484d273d944e50a28758beda15bb9,
        type: 3}
      propertyPath: m_LocalPosition.y
      value: 0
      objectReference: {fileID: 0}
    - target: {fileID: 7154558999357736694, guid: db1484d273d944e50a28758beda15bb9,
        type: 3}
      propertyPath: m_LocalPosition.z
      value: 0
      objectReference: {fileID: 0}
    - target: {fileID: 7154558999357736694, guid: db1484d273d944e50a28758beda15bb9,
        type: 3}
      propertyPath: m_LocalRotation.x
      value: -0
      objectReference: {fileID: 0}
    - target: {fileID: 7154558999357736694, guid: db1484d273d944e50a28758beda15bb9,
        type: 3}
      propertyPath: m_LocalRotation.y
      value: -0
      objectReference: {fileID: 0}
    - target: {fileID: 7154558999357736694, guid: db1484d273d944e50a28758beda15bb9,
        type: 3}
      propertyPath: m_LocalRotation.z
      value: -0
      objectReference: {fileID: 0}
    - target: {fileID: 7154558999357736694, guid: db1484d273d944e50a28758beda15bb9,
        type: 3}
      propertyPath: m_LocalRotation.w
      value: 1
      objectReference: {fileID: 0}
    - target: {fileID: 7154558999357736694, guid: db1484d273d944e50a28758beda15bb9,
        type: 3}
      propertyPath: m_RootOrder
      value: 0
      objectReference: {fileID: 0}
    - target: {fileID: 7154558999357736694, guid: db1484d273d944e50a28758beda15bb9,
        type: 3}
      propertyPath: m_LocalEulerAnglesHint.x
      value: 0
      objectReference: {fileID: 0}
    - target: {fileID: 7154558999357736694, guid: db1484d273d944e50a28758beda15bb9,
        type: 3}
      propertyPath: m_LocalEulerAnglesHint.y
      value: 0
      objectReference: {fileID: 0}
    - target: {fileID: 7154558999357736694, guid: db1484d273d944e50a28758beda15bb9,
        type: 3}
      propertyPath: m_LocalEulerAnglesHint.z
      value: 0
      objectReference: {fileID: 0}
    m_RemovedComponents: []
  m_SourcePrefab: {fileID: 100100000, guid: db1484d273d944e50a28758beda15bb9, type: 3}
