%YAML 1.1
%TAG !u! tag:unity3d.com,2011:
--- !u!21 &2100000
Material:
  serializedVersion: 6
  m_ObjectHideFlags: 0
  m_CorrespondingSourceObject: {fileID: 0}
  m_PrefabInstance: {fileID: 0}
  m_PrefabAsset: {fileID: 0}
  m_Name: mtl_lava_simple
  m_Shader: {fileID: 4800000, guid: bec21333d7f8cf84cb75cab616acf589, type: 3}
  m_ShaderKeywords: 
  m_LightmapFlags: 5
  m_EnableInstancingVariants: 0
  m_DoubleSidedGI: 0
  m_CustomRenderQueue: -1
  stringTagMap: {}
  disabledShaderPasses: []
  m_SavedProperties:
    serializedVersion: 3
    m_TexEnvs:
    - _Distort:
        m_Texture: {fileID: 2800000, guid: f9a73fa499a3f48499ece92e4e81aa05, type: 3}
        m_Scale: {x: 1, y: 1}
        m_Offset: {x: 0, y: 0}
    - _LavaTex:
        m_Texture: {fileID: 2800000, guid: 93a726948508cc14eab67fb1abe2daa8, type: 3}
        m_Scale: {x: 1, y: 1}
        m_Offset: {x: 0.5921427, y: 0}
    - _MainTex:
        m_Texture: {fileID: 2800000, guid: 348fa4d278c53ad4dacd07df1e63a248, type: 3}
        m_Scale: {x: 1, y: 1}
        m_Offset: {x: 0, y: 0}
    - _MainTex2:
        m_Texture: {fileID: 2800000, guid: bef54341b6d21864c82d47f3bed4c7db, type: 3}
        m_Scale: {x: 1, y: 1}
        m_Offset: {x: 0.28963017, y: 0}
    - _MainTex_Add:
        m_Texture: {fileID: 2800000, guid: 1a5d8cd24a805cd44b00c7f1e1e4d287, type: 3}
        m_Scale: {x: 1, y: 1}
        m_Offset: {x: 1.5691679, y: 0}
    m_Floats:
    - _Displacement: 0.0375
    - _RefractTexTiling: 1
    m_Colors:
    - _ChannelFactor: {r: -0.3281326, g: 0.5920941, b: 0.7360384, a: 0}
    - _Color: {r: 1, g: 1, b: 1, a: 0.07058824}
    - _SpeedStrength: {r: 1, g: 1, b: 1, a: 1}
