%YAML 1.1
%TAG !u! tag:unity3d.com,2011:
--- !u!114 &-8169737471609385726
MonoBehaviour:
  m_ObjectHideFlags: 3
  m_CorrespondingSourceObject: {fileID: 0}
  m_PrefabInstance: {fileID: 0}
  m_PrefabAsset: {fileID: 0}
  m_GameObject: {fileID: 0}
  m_Enabled: 1
  m_EditorHideFlags: 0
  m_Script: {fileID: 11500000, guid: 9b77c5407dc277943b591ade9e6b18c5, type: 3}
  m_Name: LensDistortion
  m_EditorClassIdentifier: 
  active: 1
  enabled:
    overrideState: 1
    value: 1
  intensity:
    overrideState: 1
    value: 35
  intensityX:
    overrideState: 0
    value: 1
  intensityY:
    overrideState: 0
    value: 1
  centerX:
    overrideState: 0
    value: 0
  centerY:
    overrideState: 0
    value: 0
  scale:
    overrideState: 0
    value: 1
--- !u!114 &11400000
MonoBehaviour:
  m_ObjectHideFlags: 0
  m_CorrespondingSourceObject: {fileID: 0}
  m_PrefabInstance: {fileID: 0}
  m_PrefabAsset: {fileID: 0}
  m_GameObject: {fileID: 0}
  m_Enabled: 1
  m_EditorHideFlags: 0
  m_Script: {fileID: 11500000, guid: 8e6292b2c06870d4495f009f912b9600, type: 3}
  m_Name: Main Camera Profile
  m_EditorClassIdentifier: 
  settings:
  - {fileID: 7698139771941836439}
  - {fileID: -8169737471609385726}
--- !u!114 &7698139771941836439
MonoBehaviour:
  m_ObjectHideFlags: 3
  m_CorrespondingSourceObject: {fileID: 0}
  m_PrefabInstance: {fileID: 0}
  m_PrefabAsset: {fileID: 0}
  m_GameObject: {fileID: 0}
  m_Enabled: 1
  m_EditorHideFlags: 0
  m_Script: {fileID: 11500000, guid: 48a79b01ea5641d4aa6daa2e23605641, type: 3}
  m_Name: Bloom
  m_EditorClassIdentifier: 
  active: 1
  enabled:
    overrideState: 1
    value: 1
  intensity:
    overrideState: 1
    value: 10.3
  threshold:
    overrideState: 0
    value: 1
  softKnee:
    overrideState: 0
    value: 0.605
  clamp:
    overrideState: 0
    value: 65461.13
  diffusion:
    overrideState: 0
    value: 4.59
  anamorphicRatio:
    overrideState: 0
    value: 0
  color:
    overrideState: 0
    value: {r: 1, g: 1, b: 1, a: 1}
  fastMode:
    overrideState: 0
    value: 0
  dirtTexture:
    overrideState: 0
    value: {fileID: 0}
    defaultState: 1
  dirtIntensity:
    overrideState: 0
    value: 0
